<?xml version="1.0" encoding="utf-8"?>
<!-- Generator: Adobe Illustrator 23.0.2, SVG Export Plug-In . SVG Version: 6.00 Build 0)  -->
<svg version="1.1" id="Layer_1" xmlns="http://www.w3.org/2000/svg" xmlns:xlink="http://www.w3.org/1999/xlink" x="0px" y="0px"
	 viewBox="0 0 1000 1000" style="enable-background:new 0 0 1000 1000;" xml:space="preserve">
<style type="text/css">
	.st0{fill:#055395;}
</style>
<g>
	<path class="st0" d="M499.5,331.2c5,0,10-1.2,15-0.1c22.1,2,43.9,8,63.5,18.4c25.4,13,47.3,32.8,63.1,56.5
		c16.2,24.1,25.8,52.5,27.9,81.5c-0.4,7.7-0.6,15.4,0.2,23c-1.6,22-7.1,43.8-16.9,63.7c-11.2,23-27.8,43.4-48,59.2
		c-25.2,19.7-56,32.1-87.9,35c-4.9,0.3-9.7,1.2-14.6,0.9c-3.2-0.2-6.5,0.8-9.6-0.5c11.9-33.5,23.8-67,35.8-100.4
		c13.1-0.2,26.1,0.1,39.2-0.2c8.3-0.3,16.6-5.4,19.3-13.5c11-31.1,22.4-62.1,33.1-93.4c1.8-4.7,2.7-10,1.3-14.9
		c-1.9-6.3-7.6-10.7-13.8-12.4c-5.3-1.7-11-1.1-16.5-1.1c-16.8,0-33.5,0.1-50.3-0.1c-0.3,0.6-0.8,1.7-1.1,2.2
		c-27.2,76.3-54.3,152.5-81.5,228.8c-28-7.3-54.1-21.8-74.9-41.9c-25.1-24-42.5-55.9-48.9-90c-2-10.2-2.7-20.7-3.3-31
		c0.5-21.6,4-43.4,12.2-63.5c19.9-50.8,65.9-90.9,119.4-102.3c-27.4,75.9-54.1,152.1-81.5,228c1.7,0.5,3.6,0.3,5.4,0.3
		c10,0,20,0,29.9,0c1.4,0,1.2-1.9,1.8-2.8c12-33.9,24.2-67.8,36.2-101.8c0.7-2.1,1.4-4.2,2.4-6.2c6.3,0.1,12.5,0,18.8,0.1
		c-13.1,36.8-26.1,73.6-39.4,110.3c1.4,0.6,2.9,0.4,4.4,0.4c10.5-0.1,21,0.1,31.4-0.1c11.8-33.4,23.8-66.8,35.7-100.2
		c2.5-6.8,2.8-14.9-1.3-21.2c-3.5-5.6-10.2-8.2-16.6-8.5c-8.7-0.3-17.5,0-26.2-0.1C475.3,399.2,487.6,365.3,499.5,331.2z"/>
	<path class="st0" d="M569,453c1-1.2,2.9-0.5,4.3-0.7c4.8,0.1,9.7,0,14.5,0.1c-11.3,32.2-23.1,64.2-34.2,96.5
		c-6.3,0.4-12.6,0.2-18.9,0.1C546.3,517.1,557.6,485,569,453L569,453z"/>
</g>
</svg>
